{
	"info": {
		"_postman_id": "7e836994-c0a3-4a71-b6a5-adb5b3bcb426",
		"name": "API-Management (eu1)",
		"description": "APIM Operations. E.g. Create and apply policies, promote APIs.",
		"schema": "https://schema.getpostman.com/json/collection/v2.1.0/collection.json"
	},
	"item": [
		{
			"name": "Mule Authentication",
			"event": [
				{
					"listen": "test",
					"script": {
						"id": "fc08e8de-6ed5-4c39-be19-02fe181cecdd",
						"type": "text/javascript",
						"exec": [
							"pm.globals.set(\"token\", pm.response.json().access_token);",
							"pm.globals.set(\"version\", \"v1\");"
						]
					}
				}
			],
			"request": {
				"method": "POST",
				"header": [
					{
						"key": "Content-Type",
						"value": "application/json"
					}
				],
				"body": {
					"mode": "raw",
					"raw": "{\r\n  \"username\": \"\",\r\n  \"password\": \"\"\r\n}\r\n"
				},
				"url": {
					"raw": "https://eu1.anypoint.mulesoft.com/accounts/login",
					"protocol": "https",
					"host": [
						"eu1",
						"anypoint",
						"mulesoft",
						"com"
					],
					"path": [
						"accounts",
						"login"
					]
				}
			},
			"response": []
		},
		{
			"name": "Get Org Id",
			"event": [
				{
					"listen": "test",
					"script": {
						"id": "5edd22f0-ba0a-4a68-8751-0e02ac46ecfa",
						"type": "text/javascript",
						"exec": [
							"pm.globals.set(\"organizationId\", pm.response.json().user.organizationId);",
							""
						]
					}
				}
			],
			"request": {
				"method": "GET",
				"header": [
					{
						"key": "Content-Type",
						"value": "application/json"
					},
					{
						"key": "Authorization",
						"value": "Bearer {{token}}"
					}
				],
				"body": {
					"mode": "raw",
					"raw": "{\r\n  \"username\": \"jmporcel_boi_eu\",\r\n  \"password\": \"Boi123\"\r\n}\r\n"
				},
				"url": {
					"raw": "https://eu1.anypoint.mulesoft.com/accounts/api/me",
					"protocol": "https",
					"host": [
						"eu1",
						"anypoint",
						"mulesoft",
						"com"
					],
					"path": [
						"accounts",
						"api",
						"me"
					]
				}
			},
			"response": []
		},
		{
			"name": "Get Custom Policy Templates",
			"event": [
				{
					"listen": "prerequest",
					"script": {
						"id": "3b9d22c0-1a3a-4510-942a-0d66084a2e83",
						"type": "text/javascript",
						"exec": [
							"",
							""
						]
					}
				}
			],
			"request": {
				"method": "GET",
				"header": [
					{
						"key": "Content-Type",
						"value": "application/json"
					},
					{
						"key": "Authorization",
						"value": "Bearer {{token}}"
					}
				],
				"body": {
					"mode": "raw",
					"raw": "{\n  \"name\": \"dn-cid-validation\",\n  \"gatewayVersion\": \"3.8.5\",\n  \"definition\": \"#\n# This is an example of a Custom Policy Definition file.\n# This file is used by API Platform to:\n# - Auto-generate a configuration UI for your custom policy.\n# - Determine policy dependencies\n#\n# See: https://docs.mulesoft.com/api-manager/applying-custom-policies#policy-definition \nid: dn-cid-validation\n\n# Name used to describe the policy in API Platform\nname: dn-cid-validation\n\n# A more detailed description of the policy\ndescription: This policy validates the provided client_id matches certificate Distiniguished Name, both fields populated as http headers.\n\n# Category is just a plain text used in API Platform to list policies\ncategory: Open Banking\ntype: custom\n\n# True if the policy can work on its own or false if the policy can be \n# applied only as part of another policy.\nstandalone: true\nrequiresConnectivity: false\nresourceLevelSupported: true\n\n# A list of strings that describes characteristics provided by this policy.\n# API Platform uses an indirect dependency mechanisms: policies can provide\n# or require characteristics, the platform will inform you about requirements\n# but it will not force you to use a particular policy\nprovidedCharacteristics: []\nrequiredCharacteristics: []\n\n#%RAML 1.0 Trait\nramlV1Snippet: |\n  traits:\n  - cdn-matches-cid:\n    headers:\n      client_id:\n        type: string\n        required: \n           true\n      dn:\n        type: string \n        required: \n           true\n  ...\n  /token:\n  post:\n    is: [cdn-matches-cid]\n    description: Generates token\n  \n\n# This defines custom configuration parameters for your policy template\nconfiguration:  \n  - propertyName: dn-header-name\n    name: HTTP Header name where the DN value will be populated.\n    description: This is the HTTP Header where the Distinguish Name (DN) of the client certificate will be populated. \n    type: string\n    optional: false\n    defaultValue: 'DN'\n    \n    \",\n  \"configuration\": \"<?xml version=\"1.0\" encoding=\"UTF-8\"?>\n<policy xmlns=\"http://www.mulesoft.org/schema/mule/policy\"\n\txmlns:xsi=\"http://www.w3.org/2001/XMLSchema-instance\" xmlns:spring=\"http://www.springframework.org/schema/beans\"\n\txmlns:mule=\"http://www.mulesoft.org/schema/mule/core\" xmlns:mule-ss=\"http://www.mulesoft.org/schema/mule/spring-security\"\n\txmlns:ss=\"http://www.springframework.org/schema/security\"\n\txmlns:api-platform-gw=\"http://www.mulesoft.org/schema/mule/api-platform-gw\"\n\txmlns:dw=\"http://www.mulesoft.org/schema/mule/ee/dw\" \n\txsi:schemaLocation=\"http://www.mulesoft.org/schema/mule/policy http://www.mulesoft.org/schema/mule/policy/current/mule-policy.xsd\n              http://www.springframework.org/schema/beans http://www.springframework.org/schema/beans/spring-beans-current.xsd\n              http://www.mulesoft.org/schema/mule/spring-security http://www.mulesoft.org/schema/mule/spring-security/current/mule-spring-security.xsd\n              http://www.springframework.org/schema/security http://www.springframework.org/schema/security/spring-security-current.xsd\n              http://www.mulesoft.org/schema/mule/api-platform-gw http://www.mulesoft.org/schema/mule/api-platform-gw/current/mule-api-platform-gw.xsd\n              http://www.mulesoft.org/schema/mule/core http://www.mulesoft.org/schema/mule/core/current/mule.xsd\n              http://www.mulesoft.org/schema/mule/ee/dw http://www.mulesoft.org/schema/mule/ee/dw/current/dw.xsd\"\n               id=\"{{ policyId }}\" policyName=\"dn-cid-validation\" order=\"{{order}}\">\n\t<!-- This is a custom policy example to help you get started. It's a policy \n\t\tthat filters HTTP requests based on a MEL expression. The policy has two \n\t\tconfiguration parameters (see the YAML file): - query: a MEL expression to \n\t\tdetermine which messages to filter. - denied-message: a message to display \n\t\tin the response when the filter is applied. For more information about creating \n\t\tcustom policies see: https://docs.mulesoft.com/api-manager/creating-a-policy-walkthrough \n\t\tand https://docs.mulesoft.com/api-manager/applying-custom-policies -->\n\n\t<!-- A pointcut controls the scope of a policy application. You can use \n\t\tdifferent types of conditions to determine if the policy must be applied. \n\t\tapi-platform-gw:api-pointcut: Applies the policy to a particular API. apiName/apiVersion \n\t\tvalues are compared against the auto-discovery global element defined in \n\t\tyour Mule project. See: https://docs.mulesoft.com/api-manager/api-auto-discovery \n\t\tFor other kinds of pointcut conditions see: https://docs.mulesoft.com/api-manager/applying-custom-policies -->\n\t<mule:expression-filter xmlns:mule=\"http://www.mulesoft.org/schema/mule/core\"\n\t\texpression=\"#[flowVars.clientId == flowVars.distinguishedName]\" name=\"dnValidateExpression\" />\n\n\t{{#pointcutData.length}}\n\t  {{#pointcutData}}\n\t    <pointcut>\n\t      <api-platform-gw:api-pointcut apiName=\"{{apiName}}\" apiVersion=\"{{apiVersionName}}\"/>\n\t      <resource methodRegex=\"{{methodRegex}}\" uriTemplateRegex=\"{{uriTemplateRegex}}\"/>\n\t    </pointcut>\n\t  {{/pointcutData}}\n\t{{/pointcutData.length}}\n\t{{^pointcutData.length}}\n\t  <pointcut>\n\t    <api-platform-gw:api-pointcut apiName=\"{{apiName}}\" apiVersion=\"{{apiVersionName}}\"/>\n\t  </pointcut>\n\t{{/pointcutData.length}}\n\n\t<!-- The before tag executes before your API flows. In this tag you can \n\t\tfilter or manipulate the incoming message. -->\n\t<before>\n\t\t\n\t\t<mule:set-variable variableName=\"clientId\"\n\t\t\tvalue=\"#[flowVars.basic_auth = message.inboundProperties['Authorization'] != null ? message.inboundProperties['Authorization'] : ''; flowVars.basic_auth = regex('^Basic .+', flowVars.basic_auth) != null ? flowVars.basic_auth.split(' ')[1] : ''; flowVars.basic_auth = regex('^([A-Za-z0-9+/]{4})*([A-Za-z0-9+/]{4}|[A-Za-z0-9+/]{3}=|[A-Za-z0-9+/]{2}==)$', flowVars.basic_auth) != null ? (new String(Base64.getDecoder().decode(flowVars.basic_auth))).toString() : '' ; flowVars.basic_auth = (regex('.+:.+', flowVars.basic_auth) != null ? flowVars.basic_auth.split(':')[0] : ''); flowVars.basic_auth]\" />\n\t\t<mule:set-variable variableName=\"distinguishedName\"\n\t\t\tvalue=\"#[message.inboundProperties['{{dn-header-name}}']]\" />\n\n\t\t<mule:choice>\n\t\t\t<mule:when expression=\"#[flowVars.correlationId == null]\">\n\t\t\t\t<mule:set-variable variableName=\"correlationId\" value=\"#[message.outboundProperties['x-fapi-interaction-id'] != null ? message.outboundProperties['x-fapi-interaction-id'] : message.inboundProperties['x-fapi-interaction-id']]\" />\n\t\t\t</mule:when>\n\t\t\t<mule:otherwise>\n\t\t\t    <mule:logger message=\"Correlation ID already set: #[flowVars.correlationId]\" level=\"DEBUG\"/>\n\t\t\t</mule:otherwise>\n\t\t</mule:choice>\n\n\t\t<mule:message-filter xmlns:mule=\"http://www.mulesoft.org/schema/mule/core\"\n\t\t\tonUnaccepted=\"policyViolation\">\n\t\t\t<mule:filter ref=\"dnValidateExpression\" />\n\t\t</mule:message-filter>\n\t\t<mule:logger level=\"INFO\" message=\"DN Header Validation (#[flowVars.correlationId]): DN - #[flowVars.distinguishedName] validated with Client ID\"/>\n\n\t</before>\n\n\t<!-- The after is inserted after your API flows. With this tag you can manipulate \n\t\tthe API response. Note that if the API flow is halted (ie. by a filter) the \n\t\tafter tag will not run. In this example, the after tag is not executed when \n\t\tthe message is filtered. -->\n\t<mule:processor-chain name=\"policyViolation\">\n\t\t\n\t\t<mule:set-property propertyName=\"http.status\" value=\"401\" />\n\t\t<mule:set-payload value=\"\" />\n          <dw:transform-message>\n          \t<dw:input-payload mimeType=\"application/java\" />\n            <dw:set-variable variableName=\"loggerFields\"><![CDATA[%dw 1.0\n\t\t%output application/json\n\t\t---\n\t\t{\n\t\t\t\"loggedDateTime\": now,\n\t\t\t\"x-fapi-interaction-id\": flowVars.correlationId,\n\t\t\t\"dataElements\": {\n\t\t\t\t((inboundProperties ++ outboundProperties) distinctBy $ mapObject ({\n\t\t\t\t\t('$$'): $ \n\t\t\t\t\t\twhen '$$' != 'authorization' and '$$' != 'x-fapi-interaction-id' otherwise {}\n\t\t\t\t\t})\n\t\t\t\t),\n\t\t\t\t\"policy.name\": \"DN Header Validation\",\n\t\t\t\t\"validation.details\": \"Mismatch between Client Id received - \" ++ flowVars.clientId ++ \" and DN extracted header - \" ++ (flowVars.distinguishedName when flowVars.distinguishedName != null otherwise '')\n\t\t\t}\n\t\t}]]></dw:set-variable>\n          </dw:transform-message>\n\t\t<mule:logger level=\"INFO\" message=\"&gt;&gt;&gt; Policy Violation details : #[flowVars.loggerFields]\"/>\n\n\t</mule:processor-chain>\n</policy>\"\n}"
				},
				"url": {
					"raw": "https://eu1.anypoint.mulesoft.com/apimanager/api/{{version}}/organizations/{{organizationId}}/custom-policy-templates?offset=&limit=100&sort=&ascending=&query=",
					"protocol": "https",
					"host": [
						"eu1",
						"anypoint",
						"mulesoft",
						"com"
					],
					"path": [
						"apimanager",
						"api",
						"{{version}}",
						"organizations",
						"{{organizationId}}",
						"custom-policy-templates"
					],
					"query": [
						{
							"key": "offset",
							"value": ""
						},
						{
							"key": "limit",
							"value": "100"
						},
						{
							"key": "sort",
							"value": ""
						},
						{
							"key": "ascending",
							"value": ""
						},
						{
							"key": "query",
							"value": ""
						}
					]
				}
			},
			"response": []
		},
		{
			"name": "Get OOTB Policy Templates",
			"event": [
				{
					"listen": "prerequest",
					"script": {
						"id": "3b9d22c0-1a3a-4510-942a-0d66084a2e83",
						"type": "text/javascript",
						"exec": [
							"",
							""
						]
					}
				}
			],
			"request": {
				"method": "GET",
				"header": [
					{
						"key": "Content-Type",
						"value": "application/json"
					},
					{
						"key": "Authorization",
						"value": "Bearer {{token}}"
					}
				],
				"body": {
					"mode": "raw",
					"raw": "{\n  \"name\": \"dn-cid-validation\",\n  \"gatewayVersion\": \"3.8.5\",\n  \"definition\": \"#\n# This is an example of a Custom Policy Definition file.\n# This file is used by API Platform to:\n# - Auto-generate a configuration UI for your custom policy.\n# - Determine policy dependencies\n#\n# See: https://docs.mulesoft.com/api-manager/applying-custom-policies#policy-definition \nid: dn-cid-validation\n\n# Name used to describe the policy in API Platform\nname: dn-cid-validation\n\n# A more detailed description of the policy\ndescription: This policy validates the provided client_id matches certificate Distiniguished Name, both fields populated as http headers.\n\n# Category is just a plain text used in API Platform to list policies\ncategory: Open Banking\ntype: custom\n\n# True if the policy can work on its own or false if the policy can be \n# applied only as part of another policy.\nstandalone: true\nrequiresConnectivity: false\nresourceLevelSupported: true\n\n# A list of strings that describes characteristics provided by this policy.\n# API Platform uses an indirect dependency mechanisms: policies can provide\n# or require characteristics, the platform will inform you about requirements\n# but it will not force you to use a particular policy\nprovidedCharacteristics: []\nrequiredCharacteristics: []\n\n#%RAML 1.0 Trait\nramlV1Snippet: |\n  traits:\n  - cdn-matches-cid:\n    headers:\n      client_id:\n        type: string\n        required: \n           true\n      dn:\n        type: string \n        required: \n           true\n  ...\n  /token:\n  post:\n    is: [cdn-matches-cid]\n    description: Generates token\n  \n\n# This defines custom configuration parameters for your policy template\nconfiguration:  \n  - propertyName: dn-header-name\n    name: HTTP Header name where the DN value will be populated.\n    description: This is the HTTP Header where the Distinguish Name (DN) of the client certificate will be populated. \n    type: string\n    optional: false\n    defaultValue: 'DN'\n    \n    \",\n  \"configuration\": \"<?xml version=\"1.0\" encoding=\"UTF-8\"?>\n<policy xmlns=\"http://www.mulesoft.org/schema/mule/policy\"\n\txmlns:xsi=\"http://www.w3.org/2001/XMLSchema-instance\" xmlns:spring=\"http://www.springframework.org/schema/beans\"\n\txmlns:mule=\"http://www.mulesoft.org/schema/mule/core\" xmlns:mule-ss=\"http://www.mulesoft.org/schema/mule/spring-security\"\n\txmlns:ss=\"http://www.springframework.org/schema/security\"\n\txmlns:api-platform-gw=\"http://www.mulesoft.org/schema/mule/api-platform-gw\"\n\txmlns:dw=\"http://www.mulesoft.org/schema/mule/ee/dw\" \n\txsi:schemaLocation=\"http://www.mulesoft.org/schema/mule/policy http://www.mulesoft.org/schema/mule/policy/current/mule-policy.xsd\n              http://www.springframework.org/schema/beans http://www.springframework.org/schema/beans/spring-beans-current.xsd\n              http://www.mulesoft.org/schema/mule/spring-security http://www.mulesoft.org/schema/mule/spring-security/current/mule-spring-security.xsd\n              http://www.springframework.org/schema/security http://www.springframework.org/schema/security/spring-security-current.xsd\n              http://www.mulesoft.org/schema/mule/api-platform-gw http://www.mulesoft.org/schema/mule/api-platform-gw/current/mule-api-platform-gw.xsd\n              http://www.mulesoft.org/schema/mule/core http://www.mulesoft.org/schema/mule/core/current/mule.xsd\n              http://www.mulesoft.org/schema/mule/ee/dw http://www.mulesoft.org/schema/mule/ee/dw/current/dw.xsd\"\n               id=\"{{ policyId }}\" policyName=\"dn-cid-validation\" order=\"{{order}}\">\n\t<!-- This is a custom policy example to help you get started. It's a policy \n\t\tthat filters HTTP requests based on a MEL expression. The policy has two \n\t\tconfiguration parameters (see the YAML file): - query: a MEL expression to \n\t\tdetermine which messages to filter. - denied-message: a message to display \n\t\tin the response when the filter is applied. For more information about creating \n\t\tcustom policies see: https://docs.mulesoft.com/api-manager/creating-a-policy-walkthrough \n\t\tand https://docs.mulesoft.com/api-manager/applying-custom-policies -->\n\n\t<!-- A pointcut controls the scope of a policy application. You can use \n\t\tdifferent types of conditions to determine if the policy must be applied. \n\t\tapi-platform-gw:api-pointcut: Applies the policy to a particular API. apiName/apiVersion \n\t\tvalues are compared against the auto-discovery global element defined in \n\t\tyour Mule project. See: https://docs.mulesoft.com/api-manager/api-auto-discovery \n\t\tFor other kinds of pointcut conditions see: https://docs.mulesoft.com/api-manager/applying-custom-policies -->\n\t<mule:expression-filter xmlns:mule=\"http://www.mulesoft.org/schema/mule/core\"\n\t\texpression=\"#[flowVars.clientId == flowVars.distinguishedName]\" name=\"dnValidateExpression\" />\n\n\t{{#pointcutData.length}}\n\t  {{#pointcutData}}\n\t    <pointcut>\n\t      <api-platform-gw:api-pointcut apiName=\"{{apiName}}\" apiVersion=\"{{apiVersionName}}\"/>\n\t      <resource methodRegex=\"{{methodRegex}}\" uriTemplateRegex=\"{{uriTemplateRegex}}\"/>\n\t    </pointcut>\n\t  {{/pointcutData}}\n\t{{/pointcutData.length}}\n\t{{^pointcutData.length}}\n\t  <pointcut>\n\t    <api-platform-gw:api-pointcut apiName=\"{{apiName}}\" apiVersion=\"{{apiVersionName}}\"/>\n\t  </pointcut>\n\t{{/pointcutData.length}}\n\n\t<!-- The before tag executes before your API flows. In this tag you can \n\t\tfilter or manipulate the incoming message. -->\n\t<before>\n\t\t\n\t\t<mule:set-variable variableName=\"clientId\"\n\t\t\tvalue=\"#[flowVars.basic_auth = message.inboundProperties['Authorization'] != null ? message.inboundProperties['Authorization'] : ''; flowVars.basic_auth = regex('^Basic .+', flowVars.basic_auth) != null ? flowVars.basic_auth.split(' ')[1] : ''; flowVars.basic_auth = regex('^([A-Za-z0-9+/]{4})*([A-Za-z0-9+/]{4}|[A-Za-z0-9+/]{3}=|[A-Za-z0-9+/]{2}==)$', flowVars.basic_auth) != null ? (new String(Base64.getDecoder().decode(flowVars.basic_auth))).toString() : '' ; flowVars.basic_auth = (regex('.+:.+', flowVars.basic_auth) != null ? flowVars.basic_auth.split(':')[0] : ''); flowVars.basic_auth]\" />\n\t\t<mule:set-variable variableName=\"distinguishedName\"\n\t\t\tvalue=\"#[message.inboundProperties['{{dn-header-name}}']]\" />\n\n\t\t<mule:choice>\n\t\t\t<mule:when expression=\"#[flowVars.correlationId == null]\">\n\t\t\t\t<mule:set-variable variableName=\"correlationId\" value=\"#[message.outboundProperties['x-fapi-interaction-id'] != null ? message.outboundProperties['x-fapi-interaction-id'] : message.inboundProperties['x-fapi-interaction-id']]\" />\n\t\t\t</mule:when>\n\t\t\t<mule:otherwise>\n\t\t\t    <mule:logger message=\"Correlation ID already set: #[flowVars.correlationId]\" level=\"DEBUG\"/>\n\t\t\t</mule:otherwise>\n\t\t</mule:choice>\n\n\t\t<mule:message-filter xmlns:mule=\"http://www.mulesoft.org/schema/mule/core\"\n\t\t\tonUnaccepted=\"policyViolation\">\n\t\t\t<mule:filter ref=\"dnValidateExpression\" />\n\t\t</mule:message-filter>\n\t\t<mule:logger level=\"INFO\" message=\"DN Header Validation (#[flowVars.correlationId]): DN - #[flowVars.distinguishedName] validated with Client ID\"/>\n\n\t</before>\n\n\t<!-- The after is inserted after your API flows. With this tag you can manipulate \n\t\tthe API response. Note that if the API flow is halted (ie. by a filter) the \n\t\tafter tag will not run. In this example, the after tag is not executed when \n\t\tthe message is filtered. -->\n\t<mule:processor-chain name=\"policyViolation\">\n\t\t\n\t\t<mule:set-property propertyName=\"http.status\" value=\"401\" />\n\t\t<mule:set-payload value=\"\" />\n          <dw:transform-message>\n          \t<dw:input-payload mimeType=\"application/java\" />\n            <dw:set-variable variableName=\"loggerFields\"><![CDATA[%dw 1.0\n\t\t%output application/json\n\t\t---\n\t\t{\n\t\t\t\"loggedDateTime\": now,\n\t\t\t\"x-fapi-interaction-id\": flowVars.correlationId,\n\t\t\t\"dataElements\": {\n\t\t\t\t((inboundProperties ++ outboundProperties) distinctBy $ mapObject ({\n\t\t\t\t\t('$$'): $ \n\t\t\t\t\t\twhen '$$' != 'authorization' and '$$' != 'x-fapi-interaction-id' otherwise {}\n\t\t\t\t\t})\n\t\t\t\t),\n\t\t\t\t\"policy.name\": \"DN Header Validation\",\n\t\t\t\t\"validation.details\": \"Mismatch between Client Id received - \" ++ flowVars.clientId ++ \" and DN extracted header - \" ++ (flowVars.distinguishedName when flowVars.distinguishedName != null otherwise '')\n\t\t\t}\n\t\t}]]></dw:set-variable>\n          </dw:transform-message>\n\t\t<mule:logger level=\"INFO\" message=\"&gt;&gt;&gt; Policy Violation details : #[flowVars.loggerFields]\"/>\n\n\t</mule:processor-chain>\n</policy>\"\n}"
				},
				"url": {
					"raw": "https://eu1.anypoint.mulesoft.com/apimanager/api/{{version}}/organizations/{{organizationId}}/policy-templates",
					"protocol": "https",
					"host": [
						"eu1",
						"anypoint",
						"mulesoft",
						"com"
					],
					"path": [
						"apimanager",
						"api",
						"{{version}}",
						"organizations",
						"{{organizationId}}",
						"policy-templates"
					]
				}
			},
			"response": []
		},
		{
			"name": "Create Custom Policy Template",
			"event": [
				{
					"listen": "prerequest",
					"script": {
						"id": "e7a6e416-16ce-4049-aa3b-88f287fcd6ac",
						"type": "text/javascript",
						"exec": [
							"",
							""
						]
					}
				},
				{
					"listen": "test",
					"script": {
						"id": "3219346c-77c2-4adf-afa2-fc452bd04cfb",
						"type": "text/javascript",
						"exec": [
							"pm.globals.set(\"customPolicyTemplateId\", pm.response.json().id);"
						]
					}
				}
			],
			"request": {
				"method": "POST",
				"header": [
					{
						"key": "Authorization",
						"value": "Bearer {{token}}"
					},
					{
						"key": "Content-Type",
						"value": "multipart/form-data"
					}
				],
				"body": {
					"mode": "formdata",
					"formdata": [
						{
							"key": "name",
							"value": "dn-cid-validation-test (do not use) -2",
							"description": "",
							"type": "text"
						},
						{
							"key": "gatewayVersion",
							"value": "*",
							"description": "",
							"type": "text"
						},
						{
							"key": "definition",
							"description": "",
							"type": "file"
						},
						{
							"key": "configuration",
							"description": "",
							"type": "file"
						}
					]
				},
				"url": {
					"raw": "https://eu1.anypoint.mulesoft.com/apimanager/api/{{version}}/organizations/{{organizationId}}/custom-policy-templates",
					"protocol": "https",
					"host": [
						"eu1",
						"anypoint",
						"mulesoft",
						"com"
					],
					"path": [
						"apimanager",
						"api",
						"{{version}}",
						"organizations",
						"{{organizationId}}",
						"custom-policy-templates"
					]
				}
			},
			"response": [
				{
					"id": "6a7b4dce-5477-4420-b51e-f2190c2d0665",
					"name": "Create Custom Policy Template Response",
					"originalRequest": {
						"method": "POST",
						"header": [
							{
								"key": "Authorization",
								"value": "Bearer {{token}}",
								"disabled": false
							},
							{
								"key": "Content-Type",
								"value": "multipart/form-data",
								"disabled": false
							}
						],
						"body": {
							"mode": "formdata",
							"formdata": [
								{
									"key": "name",
									"value": "dn-cid-validation",
									"description": "",
									"type": "text"
								},
								{
									"key": "gatewayVersion",
									"value": "*",
									"description": "",
									"type": "text"
								},
								{
									"key": "definition",
									"description": "",
									"type": "file",
									"src": {
										"0": {}
									}
								},
								{
									"key": "configuration",
									"description": "",
									"type": "file",
									"src": {
										"0": {}
									}
								}
							]
						},
						"url": {
							"raw": "https://eu1.anypoint.mulesoft.com/apimanager/api/{{version}}/organizations/{{organizationId}}/custom-policy-templates",
							"protocol": "https",
							"host": [
								"eu1",
								"anypoint",
								"mulesoft",
								"com"
							],
							"path": [
								"apimanager",
								"api",
								"{{version}}",
								"organizations",
								"{{organizationId}}",
								"custom-policy-templates"
							]
						}
					},
					"status": "Created",
					"code": 201,
					"_postman_previewlanguage": "json",
					"header": [
						{
							"key": "Connection",
							"value": "keep-alive",
							"name": "Connection",
							"description": "Options that are desired for the connection"
						},
						{
							"key": "Content-Length",
							"value": "8982",
							"name": "Content-Length",
							"description": "The length of the response body in octets (8-bit bytes)"
						},
						{
							"key": "Content-Type",
							"value": "application/json; charset=utf-8",
							"name": "Content-Type",
							"description": "The mime type of this content"
						},
						{
							"key": "Date",
							"value": "Tue, 22 May 2018 09:17:59 GMT",
							"name": "Date",
							"description": "The date and time that the message was sent"
						},
						{
							"key": "ETag",
							"value": "W/\"2316-lGqMzQ6M1MV2J0m1v5pR5eQU38g\"",
							"name": "ETag",
							"description": "An identifier for a specific version of a resource, often a message digest"
						},
						{
							"key": "Expires",
							"value": "-1",
							"name": "Expires",
							"description": "Gives the date/time after which the response is considered stale"
						},
						{
							"key": "Server",
							"value": "nginx",
							"name": "Server",
							"description": "A name for the server"
						}
					],
					"cookie": [
						{
							"expires": "Tue Jan 19 2038 03:14:07 GMT+0000 (GMT)",
							"httpOnly": true,
							"domain": "eu1.anypoint.mulesoft.com",
							"path": "/",
							"secure": true,
							"value": "eyJpZCI6Ik1DYkpGSU5nUEUwdXM2S293aEZrbVphZEdEelJ1X1JLIiwicGFzc3BvcnQiOnsidXNlciI6eyJ1c2VyX2lkIjoiNWY3ODg3MWEtMDQwOS00MDQ3LWE1MWEtNTI1NmMxY2JjMTc2In19fQ==",
							"key": "mulesoft.sess"
						},
						{
							"expires": "Tue Jan 19 2038 03:14:07 GMT+0000 (GMT)",
							"httpOnly": true,
							"domain": "eu1.anypoint.mulesoft.com",
							"path": "/",
							"secure": true,
							"value": "6bfJUDaLlwGCJkG6-d6SaPH3OKM",
							"key": "mulesoft.sess.sig"
						}
					],
					"body": "{\"name\":\"dn-cid-validation\",\"gatewayVersion\":\"*\",\"version\":\"v3\",\"definition\":\"#\\n# This is an example of a Custom Policy Definition file.\\n# This file is used by API Platform to:\\n# - Auto-generate a configuration UI for your custom policy.\\n# - Determine policy dependencies\\n#\\n# See: https://docs.mulesoft.com/api-manager/applying-custom-policies#policy-definition \\nid: dn-cid-validation\\n\\n# Name used to describe the policy in API Platform\\nname: dn-cid-validation\\n\\n# A more detailed description of the policy\\ndescription: This policy validates the provided client_id matches certificate Distiniguished Name, both fields populated as http headers.\\n\\n# Category is just a plain text used in API Platform to list policies\\ncategory: Open Banking\\ntype: custom\\n\\n# True if the policy can work on its own or false if the policy can be \\n# applied only as part of another policy.\\nstandalone: true\\nrequiresConnectivity: false\\nresourceLevelSupported: true\\n\\n# A list of strings that describes characteristics provided by this policy.\\n# API Platform uses an indirect dependency mechanisms: policies can provide\\n# or require characteristics, the platform will inform you about requirements\\n# but it will not force you to use a particular policy\\nprovidedCharacteristics: []\\nrequiredCharacteristics: []\\n\\n#%RAML 1.0 Trait\\nramlV1Snippet: |\\n  traits:\\n  - cdn-matches-cid:\\n    headers:\\n      client_id:\\n        type: string\\n        required: \\n           true\\n      dn:\\n        type: string \\n        required: \\n           true\\n  ...\\n  /token:\\n  post:\\n    is: [cdn-matches-cid]\\n    description: Generates token\\n  \\n\\n# This defines custom configuration parameters for your policy template\\nconfiguration:  \\n  - propertyName: dn-header-name\\n    name: HTTP Header name where the DN value will be populated.\\n    description: This is the HTTP Header where the Distinguish Name (DN) of the client certificate will be populated. \\n    type: string\\n    optional: false\\n    defaultValue: 'DN'\\n    \\n    \",\"configuration\":\"<?xml version=\\\"1.0\\\" encoding=\\\"UTF-8\\\"?>\\n<policy xmlns=\\\"http://www.mulesoft.org/schema/mule/policy\\\"\\n\\txmlns:xsi=\\\"http://www.w3.org/2001/XMLSchema-instance\\\" xmlns:spring=\\\"http://www.springframework.org/schema/beans\\\"\\n\\txmlns:mule=\\\"http://www.mulesoft.org/schema/mule/core\\\" xmlns:mule-ss=\\\"http://www.mulesoft.org/schema/mule/spring-security\\\"\\n\\txmlns:ss=\\\"http://www.springframework.org/schema/security\\\"\\n\\txmlns:api-platform-gw=\\\"http://www.mulesoft.org/schema/mule/api-platform-gw\\\"\\n\\txmlns:dw=\\\"http://www.mulesoft.org/schema/mule/ee/dw\\\" \\n\\txsi:schemaLocation=\\\"http://www.mulesoft.org/schema/mule/policy http://www.mulesoft.org/schema/mule/policy/current/mule-policy.xsd\\n              http://www.springframework.org/schema/beans http://www.springframework.org/schema/beans/spring-beans-current.xsd\\n              http://www.mulesoft.org/schema/mule/spring-security http://www.mulesoft.org/schema/mule/spring-security/current/mule-spring-security.xsd\\n              http://www.springframework.org/schema/security http://www.springframework.org/schema/security/spring-security-current.xsd\\n              http://www.mulesoft.org/schema/mule/api-platform-gw http://www.mulesoft.org/schema/mule/api-platform-gw/current/mule-api-platform-gw.xsd\\n              http://www.mulesoft.org/schema/mule/core http://www.mulesoft.org/schema/mule/core/current/mule.xsd\\n              http://www.mulesoft.org/schema/mule/ee/dw http://www.mulesoft.org/schema/mule/ee/dw/current/dw.xsd\\\"\\n               id=\\\"{{ policyId }}\\\" policyName=\\\"dn-cid-validation\\\" order=\\\"{{order}}\\\">\\n\\t<!-- This is a custom policy example to help you get started. It's a policy \\n\\t\\tthat filters HTTP requests based on a MEL expression. The policy has two \\n\\t\\tconfiguration parameters (see the YAML file): - query: a MEL expression to \\n\\t\\tdetermine which messages to filter. - denied-message: a message to display \\n\\t\\tin the response when the filter is applied. For more information about creating \\n\\t\\tcustom policies see: https://docs.mulesoft.com/api-manager/creating-a-policy-walkthrough \\n\\t\\tand https://docs.mulesoft.com/api-manager/applying-custom-policies -->\\n\\n\\t<!-- A pointcut controls the scope of a policy application. You can use \\n\\t\\tdifferent types of conditions to determine if the policy must be applied. \\n\\t\\tapi-platform-gw:api-pointcut: Applies the policy to a particular API. apiName/apiVersion \\n\\t\\tvalues are compared against the auto-discovery global element defined in \\n\\t\\tyour Mule project. See: https://docs.mulesoft.com/api-manager/api-auto-discovery \\n\\t\\tFor other kinds of pointcut conditions see: https://docs.mulesoft.com/api-manager/applying-custom-policies -->\\n\\t<mule:expression-filter xmlns:mule=\\\"http://www.mulesoft.org/schema/mule/core\\\"\\n\\t\\texpression=\\\"#[flowVars.clientId == flowVars.distinguishedName]\\\" name=\\\"dnValidateExpression\\\" />\\n\\n\\t{{#pointcutData.length}}\\n\\t  {{#pointcutData}}\\n\\t    <pointcut>\\n\\t      <api-platform-gw:api-pointcut apiName=\\\"{{apiName}}\\\" apiVersion=\\\"{{apiVersionName}}\\\"/>\\n\\t      <resource methodRegex=\\\"{{methodRegex}}\\\" uriTemplateRegex=\\\"{{uriTemplateRegex}}\\\"/>\\n\\t    </pointcut>\\n\\t  {{/pointcutData}}\\n\\t{{/pointcutData.length}}\\n\\t{{^pointcutData.length}}\\n\\t  <pointcut>\\n\\t    <api-platform-gw:api-pointcut apiName=\\\"{{apiName}}\\\" apiVersion=\\\"{{apiVersionName}}\\\"/>\\n\\t  </pointcut>\\n\\t{{/pointcutData.length}}\\n\\n\\t<!-- The before tag executes before your API flows. In this tag you can \\n\\t\\tfilter or manipulate the incoming message. -->\\n\\t<before>\\n\\t\\t\\n\\t\\t<mule:set-variable variableName=\\\"clientId\\\"\\n\\t\\t\\tvalue=\\\"#[flowVars.basic_auth = message.inboundProperties['Authorization'] != null ? message.inboundProperties['Authorization'] : ''; flowVars.basic_auth = regex('^Basic .+', flowVars.basic_auth) != null ? flowVars.basic_auth.split(' ')[1] : ''; flowVars.basic_auth = regex('^([A-Za-z0-9+/]{4})*([A-Za-z0-9+/]{4}|[A-Za-z0-9+/]{3}=|[A-Za-z0-9+/]{2}==)$', flowVars.basic_auth) != null ? (new String(Base64.getDecoder().decode(flowVars.basic_auth))).toString() : '' ; flowVars.basic_auth = (regex('.+:.+', flowVars.basic_auth) != null ? flowVars.basic_auth.split(':')[0] : ''); flowVars.basic_auth]\\\" />\\n\\t\\t<mule:set-variable variableName=\\\"distinguishedName\\\"\\n\\t\\t\\tvalue=\\\"#[message.inboundProperties['{{dn-header-name}}']]\\\" />\\n\\n\\t\\t<mule:choice>\\n\\t\\t\\t<mule:when expression=\\\"#[flowVars.correlationId == null]\\\">\\n\\t\\t\\t\\t<mule:set-variable variableName=\\\"correlationId\\\" value=\\\"#[message.outboundProperties['x-fapi-interaction-id'] != null ? message.outboundProperties['x-fapi-interaction-id'] : message.inboundProperties['x-fapi-interaction-id']]\\\" />\\n\\t\\t\\t</mule:when>\\n\\t\\t\\t<mule:otherwise>\\n\\t\\t\\t    <mule:logger message=\\\"Correlation ID already set: #[flowVars.correlationId]\\\" level=\\\"DEBUG\\\"/>\\n\\t\\t\\t</mule:otherwise>\\n\\t\\t</mule:choice>\\n\\n\\t\\t<mule:message-filter xmlns:mule=\\\"http://www.mulesoft.org/schema/mule/core\\\"\\n\\t\\t\\tonUnaccepted=\\\"policyViolation\\\">\\n\\t\\t\\t<mule:filter ref=\\\"dnValidateExpression\\\" />\\n\\t\\t</mule:message-filter>\\n\\t\\t<mule:logger level=\\\"INFO\\\" message=\\\"DN Header Validation (#[flowVars.correlationId]): DN - #[flowVars.distinguishedName] validated with Client ID\\\"/>\\n\\n\\t</before>\\n\\n\\t<!-- The after is inserted after your API flows. With this tag you can manipulate \\n\\t\\tthe API response. Note that if the API flow is halted (ie. by a filter) the \\n\\t\\tafter tag will not run. In this example, the after tag is not executed when \\n\\t\\tthe message is filtered. -->\\n\\t<mule:processor-chain name=\\\"policyViolation\\\">\\n\\t\\t\\n\\t\\t<mule:set-property propertyName=\\\"http.status\\\" value=\\\"401\\\" />\\n\\t\\t<mule:set-payload value=\\\"\\\" />\\n          <dw:transform-message>\\n          \\t<dw:input-payload mimeType=\\\"application/java\\\" />\\n            <dw:set-variable variableName=\\\"loggerFields\\\"><![CDATA[%dw 1.0\\n\\t\\t%output application/json\\n\\t\\t---\\n\\t\\t{\\n\\t\\t\\t\\\"loggedDateTime\\\": now,\\n\\t\\t\\t\\\"x-fapi-interaction-id\\\": flowVars.correlationId,\\n\\t\\t\\t\\\"dataElements\\\": {\\n\\t\\t\\t\\t((inboundProperties ++ outboundProperties) distinctBy $ mapObject ({\\n\\t\\t\\t\\t\\t('$$'): $ \\n\\t\\t\\t\\t\\t\\twhen '$$' != 'authorization' and '$$' != 'x-fapi-interaction-id' otherwise {}\\n\\t\\t\\t\\t\\t})\\n\\t\\t\\t\\t),\\n\\t\\t\\t\\t\\\"policy.name\\\": \\\"DN Header Validation\\\",\\n\\t\\t\\t\\t\\\"validation.details\\\": \\\"Mismatch between Client Id received - \\\" ++ flowVars.clientId ++ \\\" and DN extracted header - \\\" ++ (flowVars.distinguishedName when flowVars.distinguishedName != null otherwise '')\\n\\t\\t\\t}\\n\\t\\t}]]></dw:set-variable>\\n          </dw:transform-message>\\n\\t\\t<mule:logger level=\\\"INFO\\\" message=\\\"&gt;&gt;&gt; Policy Violation details : #[flowVars.loggerFields]\\\"/>\\n\\n\\t</mule:processor-chain>\\n</policy>\",\"audit\":{\"created\":{\"date\":\"2018-05-22T09:17:59.898Z\"},\"updated\":{}},\"masterOrganizationId\":\"65e99896-9aea-448e-b484-9a13e3f23349\",\"organizationId\":\"65e99896-9aea-448e-b484-9a13e3f23349\",\"id\":122}"
				}
			]
		},
		{
			"name": "Delete Custom Policy Template",
			"event": [
				{
					"listen": "prerequest",
					"script": {
						"id": "912158cd-adaf-4112-b963-09cae00541c5",
						"type": "text/javascript",
						"exec": [
							"",
							"",
							""
						]
					}
				}
			],
			"request": {
				"method": "DELETE",
				"header": [
					{
						"key": "Content-Type",
						"value": "application/json"
					},
					{
						"key": "Authorization",
						"value": "Bearer {{token}}"
					}
				],
				"body": {
					"mode": "raw",
					"raw": ""
				},
				"url": {
					"raw": "https://eu1.anypoint.mulesoft.com/apimanager/api/{{version}}/organizations/{{organizationId}}/custom-policy-templates/{{customPolicyTemplateId}}",
					"protocol": "https",
					"host": [
						"eu1",
						"anypoint",
						"mulesoft",
						"com"
					],
					"path": [
						"apimanager",
						"api",
						"{{version}}",
						"organizations",
						"{{organizationId}}",
						"custom-policy-templates",
						"{{customPolicyTemplateId}}"
					]
				}
			},
			"response": []
		},
		{
			"name": "Get Custom Policy Contracts",
			"event": [
				{
					"listen": "prerequest",
					"script": {
						"id": "1bf62d72-729c-462b-842b-115de796d282",
						"type": "text/javascript",
						"exec": [
							"",
							"",
							""
						]
					}
				}
			],
			"request": {
				"method": "GET",
				"header": [
					{
						"key": "Content-Type",
						"value": "application/json"
					},
					{
						"key": "Authorization",
						"value": "Bearer {{token}}"
					}
				],
				"body": {
					"mode": "raw",
					"raw": "{\n  \"name\": \"dn-cid-validation\",\n  \"gatewayVersion\": \"3.8.5\",\n  \"definition\": \"#\n# This is an example of a Custom Policy Definition file.\n# This file is used by API Platform to:\n# - Auto-generate a configuration UI for your custom policy.\n# - Determine policy dependencies\n#\n# See: https://docs.mulesoft.com/api-manager/applying-custom-policies#policy-definition \nid: dn-cid-validation\n\n# Name used to describe the policy in API Platform\nname: dn-cid-validation\n\n# A more detailed description of the policy\ndescription: This policy validates the provided client_id matches certificate Distiniguished Name, both fields populated as http headers.\n\n# Category is just a plain text used in API Platform to list policies\ncategory: Open Banking\ntype: custom\n\n# True if the policy can work on its own or false if the policy can be \n# applied only as part of another policy.\nstandalone: true\nrequiresConnectivity: false\nresourceLevelSupported: true\n\n# A list of strings that describes characteristics provided by this policy.\n# API Platform uses an indirect dependency mechanisms: policies can provide\n# or require characteristics, the platform will inform you about requirements\n# but it will not force you to use a particular policy\nprovidedCharacteristics: []\nrequiredCharacteristics: []\n\n#%RAML 1.0 Trait\nramlV1Snippet: |\n  traits:\n  - cdn-matches-cid:\n    headers:\n      client_id:\n        type: string\n        required: \n           true\n      dn:\n        type: string \n        required: \n           true\n  ...\n  /token:\n  post:\n    is: [cdn-matches-cid]\n    description: Generates token\n  \n\n# This defines custom configuration parameters for your policy template\nconfiguration:  \n  - propertyName: dn-header-name\n    name: HTTP Header name where the DN value will be populated.\n    description: This is the HTTP Header where the Distinguish Name (DN) of the client certificate will be populated. \n    type: string\n    optional: false\n    defaultValue: 'DN'\n    \n    \",\n  \"configuration\": \"<?xml version=\"1.0\" encoding=\"UTF-8\"?>\n<policy xmlns=\"http://www.mulesoft.org/schema/mule/policy\"\n\txmlns:xsi=\"http://www.w3.org/2001/XMLSchema-instance\" xmlns:spring=\"http://www.springframework.org/schema/beans\"\n\txmlns:mule=\"http://www.mulesoft.org/schema/mule/core\" xmlns:mule-ss=\"http://www.mulesoft.org/schema/mule/spring-security\"\n\txmlns:ss=\"http://www.springframework.org/schema/security\"\n\txmlns:api-platform-gw=\"http://www.mulesoft.org/schema/mule/api-platform-gw\"\n\txmlns:dw=\"http://www.mulesoft.org/schema/mule/ee/dw\" \n\txsi:schemaLocation=\"http://www.mulesoft.org/schema/mule/policy http://www.mulesoft.org/schema/mule/policy/current/mule-policy.xsd\n              http://www.springframework.org/schema/beans http://www.springframework.org/schema/beans/spring-beans-current.xsd\n              http://www.mulesoft.org/schema/mule/spring-security http://www.mulesoft.org/schema/mule/spring-security/current/mule-spring-security.xsd\n              http://www.springframework.org/schema/security http://www.springframework.org/schema/security/spring-security-current.xsd\n              http://www.mulesoft.org/schema/mule/api-platform-gw http://www.mulesoft.org/schema/mule/api-platform-gw/current/mule-api-platform-gw.xsd\n              http://www.mulesoft.org/schema/mule/core http://www.mulesoft.org/schema/mule/core/current/mule.xsd\n              http://www.mulesoft.org/schema/mule/ee/dw http://www.mulesoft.org/schema/mule/ee/dw/current/dw.xsd\"\n               id=\"{{ policyId }}\" policyName=\"dn-cid-validation\" order=\"{{order}}\">\n\t<!-- This is a custom policy example to help you get started. It's a policy \n\t\tthat filters HTTP requests based on a MEL expression. The policy has two \n\t\tconfiguration parameters (see the YAML file): - query: a MEL expression to \n\t\tdetermine which messages to filter. - denied-message: a message to display \n\t\tin the response when the filter is applied. For more information about creating \n\t\tcustom policies see: https://docs.mulesoft.com/api-manager/creating-a-policy-walkthrough \n\t\tand https://docs.mulesoft.com/api-manager/applying-custom-policies -->\n\n\t<!-- A pointcut controls the scope of a policy application. You can use \n\t\tdifferent types of conditions to determine if the policy must be applied. \n\t\tapi-platform-gw:api-pointcut: Applies the policy to a particular API. apiName/apiVersion \n\t\tvalues are compared against the auto-discovery global element defined in \n\t\tyour Mule project. See: https://docs.mulesoft.com/api-manager/api-auto-discovery \n\t\tFor other kinds of pointcut conditions see: https://docs.mulesoft.com/api-manager/applying-custom-policies -->\n\t<mule:expression-filter xmlns:mule=\"http://www.mulesoft.org/schema/mule/core\"\n\t\texpression=\"#[flowVars.clientId == flowVars.distinguishedName]\" name=\"dnValidateExpression\" />\n\n\t{{#pointcutData.length}}\n\t  {{#pointcutData}}\n\t    <pointcut>\n\t      <api-platform-gw:api-pointcut apiName=\"{{apiName}}\" apiVersion=\"{{apiVersionName}}\"/>\n\t      <resource methodRegex=\"{{methodRegex}}\" uriTemplateRegex=\"{{uriTemplateRegex}}\"/>\n\t    </pointcut>\n\t  {{/pointcutData}}\n\t{{/pointcutData.length}}\n\t{{^pointcutData.length}}\n\t  <pointcut>\n\t    <api-platform-gw:api-pointcut apiName=\"{{apiName}}\" apiVersion=\"{{apiVersionName}}\"/>\n\t  </pointcut>\n\t{{/pointcutData.length}}\n\n\t<!-- The before tag executes before your API flows. In this tag you can \n\t\tfilter or manipulate the incoming message. -->\n\t<before>\n\t\t\n\t\t<mule:set-variable variableName=\"clientId\"\n\t\t\tvalue=\"#[flowVars.basic_auth = message.inboundProperties['Authorization'] != null ? message.inboundProperties['Authorization'] : ''; flowVars.basic_auth = regex('^Basic .+', flowVars.basic_auth) != null ? flowVars.basic_auth.split(' ')[1] : ''; flowVars.basic_auth = regex('^([A-Za-z0-9+/]{4})*([A-Za-z0-9+/]{4}|[A-Za-z0-9+/]{3}=|[A-Za-z0-9+/]{2}==)$', flowVars.basic_auth) != null ? (new String(Base64.getDecoder().decode(flowVars.basic_auth))).toString() : '' ; flowVars.basic_auth = (regex('.+:.+', flowVars.basic_auth) != null ? flowVars.basic_auth.split(':')[0] : ''); flowVars.basic_auth]\" />\n\t\t<mule:set-variable variableName=\"distinguishedName\"\n\t\t\tvalue=\"#[message.inboundProperties['{{dn-header-name}}']]\" />\n\n\t\t<mule:choice>\n\t\t\t<mule:when expression=\"#[flowVars.correlationId == null]\">\n\t\t\t\t<mule:set-variable variableName=\"correlationId\" value=\"#[message.outboundProperties['x-fapi-interaction-id'] != null ? message.outboundProperties['x-fapi-interaction-id'] : message.inboundProperties['x-fapi-interaction-id']]\" />\n\t\t\t</mule:when>\n\t\t\t<mule:otherwise>\n\t\t\t    <mule:logger message=\"Correlation ID already set: #[flowVars.correlationId]\" level=\"DEBUG\"/>\n\t\t\t</mule:otherwise>\n\t\t</mule:choice>\n\n\t\t<mule:message-filter xmlns:mule=\"http://www.mulesoft.org/schema/mule/core\"\n\t\t\tonUnaccepted=\"policyViolation\">\n\t\t\t<mule:filter ref=\"dnValidateExpression\" />\n\t\t</mule:message-filter>\n\t\t<mule:logger level=\"INFO\" message=\"DN Header Validation (#[flowVars.correlationId]): DN - #[flowVars.distinguishedName] validated with Client ID\"/>\n\n\t</before>\n\n\t<!-- The after is inserted after your API flows. With this tag you can manipulate \n\t\tthe API response. Note that if the API flow is halted (ie. by a filter) the \n\t\tafter tag will not run. In this example, the after tag is not executed when \n\t\tthe message is filtered. -->\n\t<mule:processor-chain name=\"policyViolation\">\n\t\t\n\t\t<mule:set-property propertyName=\"http.status\" value=\"401\" />\n\t\t<mule:set-payload value=\"\" />\n          <dw:transform-message>\n          \t<dw:input-payload mimeType=\"application/java\" />\n            <dw:set-variable variableName=\"loggerFields\"><![CDATA[%dw 1.0\n\t\t%output application/json\n\t\t---\n\t\t{\n\t\t\t\"loggedDateTime\": now,\n\t\t\t\"x-fapi-interaction-id\": flowVars.correlationId,\n\t\t\t\"dataElements\": {\n\t\t\t\t((inboundProperties ++ outboundProperties) distinctBy $ mapObject ({\n\t\t\t\t\t('$$'): $ \n\t\t\t\t\t\twhen '$$' != 'authorization' and '$$' != 'x-fapi-interaction-id' otherwise {}\n\t\t\t\t\t})\n\t\t\t\t),\n\t\t\t\t\"policy.name\": \"DN Header Validation\",\n\t\t\t\t\"validation.details\": \"Mismatch between Client Id received - \" ++ flowVars.clientId ++ \" and DN extracted header - \" ++ (flowVars.distinguishedName when flowVars.distinguishedName != null otherwise '')\n\t\t\t}\n\t\t}]]></dw:set-variable>\n          </dw:transform-message>\n\t\t<mule:logger level=\"INFO\" message=\"&gt;&gt;&gt; Policy Violation details : #[flowVars.loggerFields]\"/>\n\n\t</mule:processor-chain>\n</policy>\"\n}"
				},
				"url": {
					"raw": "https://eu1.anypoint.mulesoft.com/apimanager/api/{{version}}/organizations/{{organizationId}}/contracts",
					"protocol": "https",
					"host": [
						"eu1",
						"anypoint",
						"mulesoft",
						"com"
					],
					"path": [
						"apimanager",
						"api",
						"{{version}}",
						"organizations",
						"{{organizationId}}",
						"contracts"
					]
				}
			},
			"response": []
		},
		{
			"name": "List of Org Environments",
			"event": [
				{
					"listen": "test",
					"script": {
						"id": "e8f6cc2f-3ac1-40ac-85c5-8fea904a33ff",
						"type": "text/javascript",
						"exec": [
							"var data = JSON.parse(responseBody); ",
							"//setting first environment from list as env Id",
							"postman.setEnvironmentVariable(\"environmentId\", data[1].id);"
						]
					}
				}
			],
			"request": {
				"method": "GET",
				"header": [
					{
						"key": "Authorization",
						"value": "Bearer {{token}}"
					}
				],
				"body": {},
				"url": {
					"raw": "https://eu1.anypoint.mulesoft.com/apiplatform/repository/v2/organizations/{{organizationId}}/environments",
					"protocol": "https",
					"host": [
						"eu1",
						"anypoint",
						"mulesoft",
						"com"
					],
					"path": [
						"apiplatform",
						"repository",
						"v2",
						"organizations",
						"{{organizationId}}",
						"environments"
					]
				}
			},
			"response": []
		},
		{
			"name": "List of Org Apis from Mule",
			"event": [
				{
					"listen": "prerequest",
					"script": {
						"id": "e295a810-e7de-4e18-9c7f-01dfd2806f8e",
						"type": "text/javascript",
						"exec": [
							"pm.globals.set(\"environmentId\", \"a827cbb1-decb-4c98-8349-b6b7a3cc931f\");"
						]
					}
				}
			],
			"request": {
				"method": "GET",
				"header": [
					{
						"key": "Authorization",
						"value": "Bearer {{token}}"
					}
				],
				"body": {},
				"url": {
					"raw": "https://eu1.anypoint.mulesoft.com/apimanager/api/{{version}}/organizations/{{organizationId}}/environments/{{environmentId}}/apis",
					"protocol": "https",
					"host": [
						"eu1",
						"anypoint",
						"mulesoft",
						"com"
					],
					"path": [
						"apimanager",
						"api",
						"{{version}}",
						"organizations",
						"{{organizationId}}",
						"environments",
						"{{environmentId}}",
						"apis"
					]
				}
			},
			"response": []
		},
		{
			"name": "Create Contract for each api version",
			"request": {
				"method": "POST",
				"header": [
					{
						"key": "Content-Type",
						"value": "application/json"
					},
					{
						"key": "Authorization",
						"value": "Bearer {{token}}"
					}
				],
				"body": {
					"mode": "raw",
					"raw": "{\r\n  \"apiVersionId\": 2,\r\n  \"applicationId\": \"34\",\r\n  \"partyId\":\"\",\r\n  \"partyName\":\"\",\r\n  \"requestedTierId\":null,\r\n  \"acceptedTerms\": true\r\n}\r\n"
				},
				"url": {
					"raw": "https://eu1.anypoint.mulesoft.com/apiplatform/repository/v2/organizations/{{organizationId}}/applications/34/contracts",
					"protocol": "https",
					"host": [
						"eu1",
						"anypoint",
						"mulesoft",
						"com"
					],
					"path": [
						"apiplatform",
						"repository",
						"v2",
						"organizations",
						"{{organizationId}}",
						"applications",
						"34",
						"contracts"
					]
				}
			},
			"response": []
		},
		{
			"name": "Get Contracts for each api version",
			"request": {
				"method": "POST",
				"header": [
					{
						"key": "Content-Type",
						"value": "application/json"
					},
					{
						"key": "Authorization",
						"value": "Bearer {{token}}"
					}
				],
				"body": {
					"mode": "raw",
					"raw": "{\r\n  \"apiVersionId\": 2,\r\n  \"applicationId\": \"34\",\r\n  \"partyId\":\"\",\r\n  \"partyName\":\"\",\r\n  \"requestedTierId\":null,\r\n  \"acceptedTerms\": true\r\n}\r\n"
				},
				"url": {
					"raw": "https://eu1.anypoint.mulesoft.com/apimanager/api/v1/organizations/{{organizationId}}/environments/a827cbb1-decb-4c98-8349-b6b7a3cc931f/apis/987/contracts",
					"protocol": "https",
					"host": [
						"eu1",
						"anypoint",
						"mulesoft",
						"com"
					],
					"path": [
						"apimanager",
						"api",
						"v1",
						"organizations",
						"{{organizationId}}",
						"environments",
						"a827cbb1-decb-4c98-8349-b6b7a3cc931f",
						"apis",
						"987",
						"contracts"
					]
				}
			},
			"response": []
		},
		{
			"name": "Register Application",
			"request": {
				"method": "POST",
				"header": [
					{
						"key": "Content-Type",
						"value": "application/json"
					},
					{
						"key": "Authorization",
						"value": "Bearer {{token}}"
					}
				],
				"body": {
					"mode": "raw",
					"raw": "{\n\"clientId\":\"9DkBcFAZZ0vkNGUOLWWA2\",\n\"clientSecret\":\"f6dA537F73b0414cAF368120FfCb1133\",\n\"description\":\"SSA Created by Raman\",\n\"name\":\"RamanTestClient\",\n\"redirectUri\":[\"https://ob.raman.boi.com/redirect\"],\n\"url\":\"\"\n}"
				},
				"url": {
					"raw": "https://eu1.anypoint.mulesoft.com/apiplatform/repository/v2/organizations/{{organizationId}}/applications",
					"protocol": "https",
					"host": [
						"eu1",
						"anypoint",
						"mulesoft",
						"com"
					],
					"path": [
						"apiplatform",
						"repository",
						"v2",
						"organizations",
						"{{organizationId}}",
						"applications"
					]
				}
			},
			"response": []
		},
		{
			"name": "Delete Registered Application",
			"request": {
				"method": "DELETE",
				"header": [
					{
						"key": "Accept",
						"value": "application/json"
					},
					{
						"key": "Authorization",
						"value": "Bearer {{token}}"
					}
				],
				"body": {},
				"url": {
					"raw": "https://eu1.anypoint.mulesoft.com/apiplatform/repository/v2/organizations/{{organizationId}}/applications/TestAyus",
					"protocol": "https",
					"host": [
						"eu1",
						"anypoint",
						"mulesoft",
						"com"
					],
					"path": [
						"apiplatform",
						"repository",
						"v2",
						"organizations",
						"{{organizationId}}",
						"applications",
						"TestAyus"
					]
				}
			},
			"response": []
		},
		{
			"name": "Apply Policy to an API ",
			"request": {
				"method": "POST",
				"header": [
					{
						"key": "Content-Type",
						"value": "application/json"
					},
					{
						"key": "Authorization",
						"value": "Bearer {{token}}"
					}
				],
				"body": {
					"mode": "raw",
					"raw": "{\n    \"policyTemplateId\": {{policyTemplateId}},\n    \"configurationData\": {\n       \"rateLimits\": [\n       \t  {\n       \t  \t\"maximumRequests\": 1,\n       \t  \t\"timePeriodInMilliseconds\": 1000\n       \t  }\n       \t]\n    }\n}"
				},
				"url": {
					"raw": "https://anypoint.mulesoft.com/apimanager/api/{{version}}/organizations/{{organizationId}}/environments/{{environmentId}}/apis/{{environmentApiId}}/policies",
					"protocol": "https",
					"host": [
						"anypoint",
						"mulesoft",
						"com"
					],
					"path": [
						"apimanager",
						"api",
						"{{version}}",
						"organizations",
						"{{organizationId}}",
						"environments",
						"{{environmentId}}",
						"apis",
						"{{environmentApiId}}",
						"policies"
					]
				}
			},
			"response": []
		}
	]
}